{
  "agentCode": "4161432",
  "leadId": "33359892606",
  "landline": 0,
  "city": "MUMBAI",
  "addressline1": "test address 1",
  "agentservicingstate": "Andaman and Nicobar Islands",
  "alternate": 0,
  "date": "2021-09-01",
  "disposition": "Follow-Up",
  "dob": "1995-12-01",
  "email": "jkhg@g.com",
  "fname": "Rahul",
  "gender": 2,
  "landmark": "hggh",
  "lname": "Jain",
  "maritalStatus": 1,
  "country": "INDIA",
  "mname": "",
  "phone": 987654321,
  "pincode": 400001,
  "prefcontact": "Mobile No.",
  "residentStatus": "RI",
  "sourcepolicy": false,
  "state": "MAHARASHTRA",
  "subdisposition": "Appointment Fixed",
  "leadConsent": "Y",
  "countryOfResidence": "India",
  "timeHH": "11",
  "timeMM": "11"
}
HEADER: 
{"Content-Type":"application/json"}
